%YAML 1.1
%TAG !u! tag:unity3d.com,2011:
--- !u!1045 &1
EditorBuildSettings:
  m_ObjectHideFlags: 0
  serializedVersion: 2
  m_Scenes:
  - enabled: 1
    path: Assets/Scenes/7-Final (Camara Animada).unity
    guid: b40c6724399857a4a817264a6c5eadae
  m_configObjects: {}
