%YAML 1.1
%TAG !u! tag:unity3d.com,2011:
--- !u!21 &2100000
Material:
  serializedVersion: 8
  m_ObjectHideFlags: 0
  m_CorrespondingSourceObject: {fileID: 0}
  m_PrefabInstance: {fileID: 0}
  m_PrefabAsset: {fileID: 0}
  m_Name: PT_Grass_Mat
  m_Shader: {fileID: 4800000, guid: 233be0623027421449b81f7423abaf79, type: 3}
  m_Parent: {fileID: 0}
  m_ModifiedSerializedProperties: 0
  m_ValidKeywords:
  - _CUSTOMWIND_ON
  - _TRANSLUCENCYONOFF_ON
  m_InvalidKeywords:
  - _ALPHAPREMULTIPLY_ON
  - _CUSTOMCOLORSTINTING_ON
  m_LightmapFlags: 4
  m_EnableInstancingVariants: 1
  m_DoubleSidedGI: 0
  m_CustomRenderQueue: -1
  stringTagMap: {}
  disabledShaderPasses: []
  m_LockedProperties: 
  m_SavedProperties:
    serializedVersion: 3
    m_TexEnvs:
    - _BaseTexture:
        m_Texture: {fileID: 2800000, guid: 1b92b31acbcdce24ba9dc6d01dbc2e84, type: 3}
        m_Scale: {x: 1, y: 1}
        m_Offset: {x: 0, y: 0}
    - _BumpMap:
        m_Texture: {fileID: 0}
        m_Scale: {x: 1, y: 1}
        m_Offset: {x: 0, y: 0}
    - _DetailAlbedoMap:
        m_Texture: {fileID: 0}
        m_Scale: {x: 1, y: 1}
        m_Offset: {x: 0, y: 0}
    - _DetailMask:
        m_Texture: {fileID: 0}
        m_Scale: {x: 1, y: 1}
        m_Offset: {x: 0, y: 0}
    - _DetailNormalMap:
        m_Texture: {fileID: 0}
        m_Scale: {x: 1, y: 1}
        m_Offset: {x: 0, y: 0}
    - _EmissionMap:
        m_Texture: {fileID: 0}
        m_Scale: {x: 1, y: 1}
        m_Offset: {x: 0, y: 0}
    - _MainTex:
        m_Texture: {fileID: 2800000, guid: 1b92b31acbcdce24ba9dc6d01dbc2e84, type: 3}
        m_Scale: {x: 1, y: 1}
        m_Offset: {x: 0, y: 0}
    - _MetallicGlossMap:
        m_Texture: {fileID: 0}
        m_Scale: {x: 1, y: 1}
        m_Offset: {x: 0, y: 0}
    - _OcclusionMap:
        m_Texture: {fileID: 0}
        m_Scale: {x: 1, y: 1}
        m_Offset: {x: 0, y: 0}
    - _ParallaxMap:
        m_Texture: {fileID: 0}
        m_Scale: {x: 1, y: 1}
        m_Offset: {x: 0, y: 0}
    - _texcoord:
        m_Texture: {fileID: 0}
        m_Scale: {x: 1, y: 1}
        m_Offset: {x: 0, y: 0}
    m_Ints: []
    m_Floats:
    - _BumpScale: 1
    - _CUSTOMCOLORSTINTING: 1
    - _CUSTOMWIND: 1
    - _Cutoff: 0.5
    - _DetailNormalMapScale: 1
    - _DstBlend: 10
    - _GlossMapScale: 1
    - _Glossiness: 0
    - _GlossyReflections: 1
    - _Gradient: 1.4
    - _GradientPower: 1
    - _LeavesThickness: 0.5
    - _MaskClipValue: 0.5
    - _Metallic: 0
    - _Mode: 3
    - _OcclusionStrength: 1
    - _Parallax: 0.02
    - _SNOWONOFF: 0
    - _Smoothness: 0
    - _SmoothnessTextureChannel: 0
    - _SnowAmount: 1
    - _SnowCoverage: 0.45
    - _SnowGradient: 0.83
    - _SpecularHighlights: 1
    - _SrcBlend: 1
    - _TRANSLUCENCYONOFF: 1
    - _TransAmbient: 0.2
    - _TransDirect: 1
    - _TransNormalDistortion: 0.1
    - _TransScattering: 2
    - _TransShadow: 0.9
    - _Translucency: 0
    - _UVSec: 0
    - _WindDensity: 1
    - _WindMovement: 1
    - _WindStrength: 0.5
    - _ZWrite: 0
    - __dirty: 0
    m_Colors:
    - _Color: {r: 1, g: 1, b: 1, a: 1}
    - _EmissionColor: {r: 0, g: 0, b: 0, a: 1}
    - _GroundColor: {r: 0.009134057, g: 0.088655606, b: 0.023153365, a: 1}
    - _TopColor: {r: 0.009721218, g: 0.44520125, b: 0.02415763, a: 1}
  m_BuildTextureStacks: []
